%YAML 1.1
%TAG !u! tag:unity3d.com,2011:
--- !u!1 &2949326277575930056
GameObject:
  m_ObjectHideFlags: 0
  m_CorrespondingSourceObject: {fileID: 0}
  m_PrefabInstance: {fileID: 0}
  m_PrefabAsset: {fileID: 0}
  serializedVersion: 6
  m_Component:
  - component: {fileID: 2118937792923656895}
  - component: {fileID: 1656978219846017762}
  - component: {fileID: 1835084003750067199}
  m_Layer: 12
  m_Name: Group
  m_TagString: Untagged
  m_Icon: {fileID: 0}
  m_NavMeshLayer: 0
  m_StaticEditorFlags: 0
  m_IsActive: 1
--- !u!224 &2118937792923656895
RectTransform:
  m_ObjectHideFlags: 0
  m_CorrespondingSourceObject: {fileID: 0}
  m_PrefabInstance: {fileID: 0}
  m_PrefabAsset: {fileID: 0}
  m_GameObject: {fileID: 2949326277575930056}
  m_LocalRotation: {x: 0, y: 0, z: 0, w: 1}
  m_LocalPosition: {x: 0, y: 0, z: 0}
  m_LocalScale: {x: 1, y: 1, z: 1}
  m_Children:
  - {fileID: 7084364533819053203}
  m_Father: {fileID: 0}
  m_RootOrder: 0
  m_LocalEulerAnglesHint: {x: 0, y: 0, z: 0}
  m_AnchorMin: {x: 0, y: 0}
  m_AnchorMax: {x: 1, y: 1}
  m_AnchoredPosition: {x: 0, y: 0}
  m_SizeDelta: {x: 0, y: 0}
  m_Pivot: {x: 0.5, y: 0.5}
--- !u!222 &1656978219846017762
CanvasRenderer:
  m_ObjectHideFlags: 0
  m_CorrespondingSourceObject: {fileID: 0}
  m_PrefabInstance: {fileID: 0}
  m_PrefabAsset: {fileID: 0}
  m_GameObject: {fileID: 2949326277575930056}
  m_CullTransparentMesh: 0
--- !u!225 &1835084003750067199
CanvasGroup:
  m_ObjectHideFlags: 0
  m_CorrespondingSourceObject: {fileID: 0}
  m_PrefabInstance: {fileID: 0}
  m_PrefabAsset: {fileID: 0}
  m_GameObject: {fileID: 2949326277575930056}
  m_Enabled: 1
  m_Alpha: 1
  m_Interactable: 1
  m_BlocksRaycasts: 1
  m_IgnoreParentGroups: 0
--- !u!1 &4435975674907568402
GameObject:
  m_ObjectHideFlags: 0
  m_CorrespondingSourceObject: {fileID: 0}
  m_PrefabInstance: {fileID: 0}
  m_PrefabAsset: {fileID: 0}
  serializedVersion: 6
  m_Component:
  - component: {fileID: 7084364533819053203}
  - component: {fileID: 8401156034789985138}
  - component: {fileID: 2148003130450992893}
  - component: {fileID: 1124273707059574875}
  m_Layer: 12
  m_Name: Content
  m_TagString: Untagged
  m_Icon: {fileID: 0}
  m_NavMeshLayer: 0
  m_StaticEditorFlags: 0
  m_IsActive: 1
--- !u!224 &7084364533819053203
RectTransform:
  m_ObjectHideFlags: 0
  m_CorrespondingSourceObject: {fileID: 0}
  m_PrefabInstance: {fileID: 0}
  m_PrefabAsset: {fileID: 0}
  m_GameObject: {fileID: 4435975674907568402}
  m_LocalRotation: {x: 0, y: 0, z: 0, w: 1}
  m_LocalPosition: {x: 0, y: 0, z: 0}
  m_LocalScale: {x: 1, y: 1, z: 1}
  m_Children:
  - {fileID: 3130771975108573096}
  - {fileID: 4855801961405600751}
  m_Father: {fileID: 2118937792923656895}
  m_RootOrder: 0
  m_LocalEulerAnglesHint: {x: 0, y: 0, z: 0}
  m_AnchorMin: {x: 0, y: 0}
  m_AnchorMax: {x: 1, y: 1}
  m_AnchoredPosition: {x: 0, y: 0}
  m_SizeDelta: {x: 0, y: 0}
  m_Pivot: {x: 0.5, y: 0.5}
--- !u!222 &8401156034789985138
CanvasRenderer:
  m_ObjectHideFlags: 0
  m_CorrespondingSourceObject: {fileID: 0}
  m_PrefabInstance: {fileID: 0}
  m_PrefabAsset: {fileID: 0}
  m_GameObject: {fileID: 4435975674907568402}
  m_CullTransparentMesh: 0
--- !u!114 &2148003130450992893
MonoBehaviour:
  m_ObjectHideFlags: 0
  m_CorrespondingSourceObject: {fileID: 0}
  m_PrefabInstance: {fileID: 0}
  m_PrefabAsset: {fileID: 0}
  m_GameObject: {fileID: 4435975674907568402}
  m_Enabled: 1
  m_EditorHideFlags: 0
  m_Script: {fileID: 11500000, guid: fe87c0e1cc204ed48ad3b37840f39efc, type: 3}
  m_Name: 
  m_EditorClassIdentifier: 
  m_Material: {fileID: 0}
  m_Color: {r: 0, g: 0, b: 0, a: 0.5019608}
  m_RaycastTarget: 0
  m_OnCullStateChanged:
    m_PersistentCalls:
      m_Calls: []
  m_Sprite: {fileID: 21300000, guid: 9917fe0b6ab1ac14fa70a60ce2344811, type: 3}
  m_Type: 0
  m_PreserveAspect: 0
  m_FillCenter: 1
  m_FillMethod: 4
  m_FillAmount: 1
  m_FillClockwise: 1
  m_FillOrigin: 0
  m_UseSpriteMesh: 0
  m_PixelsPerUnitMultiplier: 1
--- !u!114 &1124273707059574875
MonoBehaviour:
  m_ObjectHideFlags: 0
  m_CorrespondingSourceObject: {fileID: 0}
  m_PrefabInstance: {fileID: 0}
  m_PrefabAsset: {fileID: 0}
  m_GameObject: {fileID: 4435975674907568402}
  m_Enabled: 1
  m_EditorHideFlags: 0
  m_Script: {fileID: 11500000, guid: 4e29b1a8efbd4b44bb3f3716e73f07ff, type: 3}
  m_Name: 
  m_EditorClassIdentifier: 
  m_Navigation:
    m_Mode: 3
    m_SelectOnUp: {fileID: 0}
    m_SelectOnDown: {fileID: 0}
    m_SelectOnLeft: {fileID: 0}
    m_SelectOnRight: {fileID: 0}
  m_Transition: 1
  m_Colors:
    m_NormalColor: {r: 1, g: 1, b: 1, a: 1}
    m_HighlightedColor: {r: 1, g: 1, b: 1, a: 1}
    m_PressedColor: {r: 0.8679245, g: 0.8679245, b: 0.8679245, a: 1}
    m_SelectedColor: {r: 1, g: 1, b: 1, a: 1}
    m_DisabledColor: {r: 1, g: 1, b: 1, a: 0}
    m_ColorMultiplier: 1
    m_FadeDuration: 0.1
  m_SpriteState:
    m_HighlightedSprite: {fileID: 0}
    m_PressedSprite: {fileID: 0}
    m_SelectedSprite: {fileID: 0}
    m_DisabledSprite: {fileID: 0}
  m_AnimationTriggers:
    m_NormalTrigger: Normal
    m_HighlightedTrigger: Highlighted
    m_PressedTrigger: Pressed
    m_SelectedTrigger: Selected
    m_DisabledTrigger: Disabled
  m_Interactable: 1
  m_TargetGraphic: {fileID: 2148003130450992893}
  m_OnClick:
    m_PersistentCalls:
      m_Calls: []
--- !u!1001 &485349934926275575
PrefabInstance:
  m_ObjectHideFlags: 0
  serializedVersion: 2
  m_Modification:
    m_TransformParent: {fileID: 7084364533819053203}
    m_Modifications:
    - target: {fileID: 3300843546999919711, guid: 38549bababc649b42bc4310dd0ed91da,
        type: 3}
      propertyPath: m_LocalPosition.x
      value: 0
      objectReference: {fileID: 0}
    - target: {fileID: 3300843546999919711, guid: 38549bababc649b42bc4310dd0ed91da,
        type: 3}
      propertyPath: m_LocalPosition.y
      value: 0
      objectReference: {fileID: 0}
    - target: {fileID: 3300843546999919711, guid: 38549bababc649b42bc4310dd0ed91da,
        type: 3}
      propertyPath: m_LocalPosition.z
      value: 0
      objectReference: {fileID: 0}
    - target: {fileID: 3300843546999919711, guid: 38549bababc649b42bc4310dd0ed91da,
        type: 3}
      propertyPath: m_LocalRotation.x
      value: 0
      objectReference: {fileID: 0}
    - target: {fileID: 3300843546999919711, guid: 38549bababc649b42bc4310dd0ed91da,
        type: 3}
      propertyPath: m_LocalRotation.y
      value: 0
      objectReference: {fileID: 0}
    - target: {fileID: 3300843546999919711, guid: 38549bababc649b42bc4310dd0ed91da,
        type: 3}
      propertyPath: m_LocalRotation.z
      value: 0
      objectReference: {fileID: 0}
    - target: {fileID: 3300843546999919711, guid: 38549bababc649b42bc4310dd0ed91da,
        type: 3}
      propertyPath: m_LocalRotation.w
      value: 1
      objectReference: {fileID: 0}
    - target: {fileID: 3300843546999919711, guid: 38549bababc649b42bc4310dd0ed91da,
        type: 3}
      propertyPath: m_RootOrder
      value: 0
      objectReference: {fileID: 0}
    - target: {fileID: 3300843546999919711, guid: 38549bababc649b42bc4310dd0ed91da,
        type: 3}
      propertyPath: m_LocalEulerAnglesHint.x
      value: 0
      objectReference: {fileID: 0}
    - target: {fileID: 3300843546999919711, guid: 38549bababc649b42bc4310dd0ed91da,
        type: 3}
      propertyPath: m_LocalEulerAnglesHint.y
      value: 0
      objectReference: {fileID: 0}
    - target: {fileID: 3300843546999919711, guid: 38549bababc649b42bc4310dd0ed91da,
        type: 3}
      propertyPath: m_LocalEulerAnglesHint.z
      value: 0
      objectReference: {fileID: 0}
    - target: {fileID: 3300843546999919711, guid: 38549bababc649b42bc4310dd0ed91da,
        type: 3}
      propertyPath: m_AnchoredPosition.x
      value: 0
      objectReference: {fileID: 0}
    - target: {fileID: 3300843546999919711, guid: 38549bababc649b42bc4310dd0ed91da,
        type: 3}
      propertyPath: m_AnchoredPosition.y
      value: 0
      objectReference: {fileID: 0}
    - target: {fileID: 3300843546999919711, guid: 38549bababc649b42bc4310dd0ed91da,
        type: 3}
      propertyPath: m_SizeDelta.x
      value: 0
      objectReference: {fileID: 0}
    - target: {fileID: 3300843546999919711, guid: 38549bababc649b42bc4310dd0ed91da,
        type: 3}
      propertyPath: m_SizeDelta.y
      value: 0
      objectReference: {fileID: 0}
    - target: {fileID: 3300843546999919711, guid: 38549bababc649b42bc4310dd0ed91da,
        type: 3}
      propertyPath: m_AnchorMin.x
      value: 0
      objectReference: {fileID: 0}
    - target: {fileID: 3300843546999919711, guid: 38549bababc649b42bc4310dd0ed91da,
        type: 3}
      propertyPath: m_AnchorMin.y
      value: 0
      objectReference: {fileID: 0}
    - target: {fileID: 3300843546999919711, guid: 38549bababc649b42bc4310dd0ed91da,
        type: 3}
      propertyPath: m_AnchorMax.x
      value: 1
      objectReference: {fileID: 0}
    - target: {fileID: 3300843546999919711, guid: 38549bababc649b42bc4310dd0ed91da,
        type: 3}
      propertyPath: m_AnchorMax.y
      value: 1
      objectReference: {fileID: 0}
    - target: {fileID: 3300843546999919711, guid: 38549bababc649b42bc4310dd0ed91da,
        type: 3}
      propertyPath: m_Pivot.x
      value: 0.5
      objectReference: {fileID: 0}
    - target: {fileID: 3300843546999919711, guid: 38549bababc649b42bc4310dd0ed91da,
        type: 3}
      propertyPath: m_Pivot.y
      value: 0.5
      objectReference: {fileID: 0}
    - target: {fileID: 3857994932469324243, guid: 38549bababc649b42bc4310dd0ed91da,
        type: 3}
      propertyPath: m_textInfo.characterCount
      value: 5
      objectReference: {fileID: 0}
    - target: {fileID: 3857994932469324243, guid: 38549bababc649b42bc4310dd0ed91da,
        type: 3}
      propertyPath: m_textInfo.spaceCount
      value: 0
      objectReference: {fileID: 0}
    - target: {fileID: 3857994932469324243, guid: 38549bababc649b42bc4310dd0ed91da,
        type: 3}
      propertyPath: m_textInfo.wordCount
      value: 1
      objectReference: {fileID: 0}
    - target: {fileID: 3857994932469324243, guid: 38549bababc649b42bc4310dd0ed91da,
        type: 3}
      propertyPath: m_textInfo.lineCount
      value: 1
      objectReference: {fileID: 0}
    - target: {fileID: 3857994932469324243, guid: 38549bababc649b42bc4310dd0ed91da,
        type: 3}
      propertyPath: m_textInfo.pageCount
      value: 1
      objectReference: {fileID: 0}
    - target: {fileID: 3857994932469324243, guid: 38549bababc649b42bc4310dd0ed91da,
        type: 3}
      propertyPath: m_text
      value: Title
      objectReference: {fileID: 0}
    - target: {fileID: 8806302799333030184, guid: 38549bababc649b42bc4310dd0ed91da,
        type: 3}
      propertyPath: m_Name
      value: Title2
      objectReference: {fileID: 0}
    m_RemovedComponents: []
  m_SourcePrefab: {fileID: 100100000, guid: 38549bababc649b42bc4310dd0ed91da, type: 3}
--- !u!224 &3130771975108573096 stripped
RectTransform:
  m_CorrespondingSourceObject: {fileID: 3300843546999919711, guid: 38549bababc649b42bc4310dd0ed91da,
    type: 3}
  m_PrefabInstance: {fileID: 485349934926275575}
  m_PrefabAsset: {fileID: 0}
--- !u!1001 &7975230211915237296
PrefabInstance:
  m_ObjectHideFlags: 0
  serializedVersion: 2
  m_Modification:
    m_TransformParent: {fileID: 7084364533819053203}
    m_Modifications:
    - target: {fileID: 3300843546999919711, guid: 1590bfa85b5c41c47a2220352b6a1894,
        type: 3}
      propertyPath: m_LocalPosition.x
      value: 0
      objectReference: {fileID: 0}
    - target: {fileID: 3300843546999919711, guid: 1590bfa85b5c41c47a2220352b6a1894,
        type: 3}
      propertyPath: m_LocalPosition.y
      value: 0
      objectReference: {fileID: 0}
    - target: {fileID: 3300843546999919711, guid: 1590bfa85b5c41c47a2220352b6a1894,
        type: 3}
      propertyPath: m_LocalPosition.z
      value: 0
      objectReference: {fileID: 0}
    - target: {fileID: 3300843546999919711, guid: 1590bfa85b5c41c47a2220352b6a1894,
        type: 3}
      propertyPath: m_LocalRotation.x
      value: 0
      objectReference: {fileID: 0}
    - target: {fileID: 3300843546999919711, guid: 1590bfa85b5c41c47a2220352b6a1894,
        type: 3}
      propertyPath: m_LocalRotation.y
      value: 0
      objectReference: {fileID: 0}
    - target: {fileID: 3300843546999919711, guid: 1590bfa85b5c41c47a2220352b6a1894,
        type: 3}
      propertyPath: m_LocalRotation.z
      value: 0
      objectReference: {fileID: 0}
    - target: {fileID: 3300843546999919711, guid: 1590bfa85b5c41c47a2220352b6a1894,
        type: 3}
      propertyPath: m_LocalRotation.w
      value: 1
      objectReference: {fileID: 0}
    - target: {fileID: 3300843546999919711, guid: 1590bfa85b5c41c47a2220352b6a1894,
        type: 3}
      propertyPath: m_RootOrder
      value: 1
      objectReference: {fileID: 0}
    - target: {fileID: 3300843546999919711, guid: 1590bfa85b5c41c47a2220352b6a1894,
        type: 3}
      propertyPath: m_LocalEulerAnglesHint.x
      value: 0
      objectReference: {fileID: 0}
    - target: {fileID: 3300843546999919711, guid: 1590bfa85b5c41c47a2220352b6a1894,
        type: 3}
      propertyPath: m_LocalEulerAnglesHint.y
      value: 0
      objectReference: {fileID: 0}
    - target: {fileID: 3300843546999919711, guid: 1590bfa85b5c41c47a2220352b6a1894,
        type: 3}
      propertyPath: m_LocalEulerAnglesHint.z
      value: 0
      objectReference: {fileID: 0}
    - target: {fileID: 3300843546999919711, guid: 1590bfa85b5c41c47a2220352b6a1894,
        type: 3}
      propertyPath: m_AnchoredPosition.x
      value: 100
      objectReference: {fileID: 0}
    - target: {fileID: 3300843546999919711, guid: 1590bfa85b5c41c47a2220352b6a1894,
        type: 3}
      propertyPath: m_AnchoredPosition.y
      value: 0
      objectReference: {fileID: 0}
    - target: {fileID: 3300843546999919711, guid: 1590bfa85b5c41c47a2220352b6a1894,
        type: 3}
      propertyPath: m_SizeDelta.x
      value: -200
      objectReference: {fileID: 0}
    - target: {fileID: 3300843546999919711, guid: 1590bfa85b5c41c47a2220352b6a1894,
        type: 3}
      propertyPath: m_SizeDelta.y
      value: 0
      objectReference: {fileID: 0}
    - target: {fileID: 3300843546999919711, guid: 1590bfa85b5c41c47a2220352b6a1894,
        type: 3}
      propertyPath: m_AnchorMin.x
      value: 0
      objectReference: {fileID: 0}
    - target: {fileID: 3300843546999919711, guid: 1590bfa85b5c41c47a2220352b6a1894,
        type: 3}
      propertyPath: m_AnchorMin.y
      value: 0
      objectReference: {fileID: 0}
    - target: {fileID: 3300843546999919711, guid: 1590bfa85b5c41c47a2220352b6a1894,
        type: 3}
      propertyPath: m_AnchorMax.x
      value: 1
      objectReference: {fileID: 0}
    - target: {fileID: 3300843546999919711, guid: 1590bfa85b5c41c47a2220352b6a1894,
        type: 3}
      propertyPath: m_AnchorMax.y
      value: 1
      objectReference: {fileID: 0}
    - target: {fileID: 3300843546999919711, guid: 1590bfa85b5c41c47a2220352b6a1894,
        type: 3}
      propertyPath: m_Pivot.x
      value: 0.5
      objectReference: {fileID: 0}
    - target: {fileID: 3300843546999919711, guid: 1590bfa85b5c41c47a2220352b6a1894,
        type: 3}
      propertyPath: m_Pivot.y
      value: 0.5
      objectReference: {fileID: 0}
    - target: {fileID: 3857994932469324243, guid: 1590bfa85b5c41c47a2220352b6a1894,
        type: 3}
      propertyPath: m_textInfo.characterCount
      value: 7
      objectReference: {fileID: 0}
    - target: {fileID: 3857994932469324243, guid: 1590bfa85b5c41c47a2220352b6a1894,
        type: 3}
      propertyPath: m_textInfo.spaceCount
      value: 0
      objectReference: {fileID: 0}
    - target: {fileID: 3857994932469324243, guid: 1590bfa85b5c41c47a2220352b6a1894,
        type: 3}
      propertyPath: m_textInfo.wordCount
      value: 1
      objectReference: {fileID: 0}
    - target: {fileID: 3857994932469324243, guid: 1590bfa85b5c41c47a2220352b6a1894,
        type: 3}
      propertyPath: m_textInfo.lineCount
      value: 1
      objectReference: {fileID: 0}
    - target: {fileID: 3857994932469324243, guid: 1590bfa85b5c41c47a2220352b6a1894,
        type: 3}
      propertyPath: m_textInfo.pageCount
      value: 1
      objectReference: {fileID: 0}
    - target: {fileID: 3857994932469324243, guid: 1590bfa85b5c41c47a2220352b6a1894,
        type: 3}
      propertyPath: m_text
      value: Content
      objectReference: {fileID: 0}
    - target: {fileID: 8806302799333030184, guid: 1590bfa85b5c41c47a2220352b6a1894,
        type: 3}
      propertyPath: m_Name
      value: Title3
      objectReference: {fileID: 0}
    m_RemovedComponents: []
  m_SourcePrefab: {fileID: 100100000, guid: 1590bfa85b5c41c47a2220352b6a1894, type: 3}
--- !u!224 &4855801961405600751 stripped
RectTransform:
  m_CorrespondingSourceObject: {fileID: 3300843546999919711, guid: 1590bfa85b5c41c47a2220352b6a1894,
    type: 3}
  m_PrefabInstance: {fileID: 7975230211915237296}
  m_PrefabAsset: {fileID: 0}
