%YAML 1.1
%TAG !u! tag:unity3d.com,2011:
--- !u!1 &6794287480815978203
GameObject:
  m_ObjectHideFlags: 0
  m_CorrespondingSourceObject: {fileID: 0}
  m_PrefabInstance: {fileID: 0}
  m_PrefabAsset: {fileID: 0}
  serializedVersion: 6
  m_Component:
  - component: {fileID: 631569545751746994}
  - component: {fileID: 1278028449532638502}
  m_Layer: 12
  m_Name: FirstPersonManager
  m_TagString: Untagged
  m_Icon: {fileID: 0}
  m_NavMeshLayer: 0
  m_StaticEditorFlags: 0
  m_IsActive: 1
--- !u!4 &631569545751746994
Transform:
  m_ObjectHideFlags: 0
  m_CorrespondingSourceObject: {fileID: 0}
  m_PrefabInstance: {fileID: 0}
  m_PrefabAsset: {fileID: 0}
  m_GameObject: {fileID: 6794287480815978203}
  m_LocalRotation: {x: 0, y: 0, z: 0, w: 1}
  m_LocalPosition: {x: 0, y: 0, z: 0}
  m_LocalScale: {x: 1, y: 1, z: 1}
  m_Children:
  - {fileID: 2912844428445316602}
  m_Father: {fileID: 0}
  m_RootOrder: 0
  m_LocalEulerAnglesHint: {x: 0, y: 0, z: 0}
--- !u!114 &1278028449532638502
MonoBehaviour:
  m_ObjectHideFlags: 0
  m_CorrespondingSourceObject: {fileID: 0}
  m_PrefabInstance: {fileID: 0}
  m_PrefabAsset: {fileID: 0}
  m_GameObject: {fileID: 6794287480815978203}
  m_Enabled: 1
  m_EditorHideFlags: 0
  m_Script: {fileID: 11500000, guid: 6cd94c1e632dd234b93fcfd36eb7e9ee, type: 3}
  m_Name: 
  m_EditorClassIdentifier: 
  _camera: {fileID: 1427413136596569502}
--- !u!1001 &8532177038198073490
PrefabInstance:
  m_ObjectHideFlags: 0
  serializedVersion: 2
  m_Modification:
    m_TransformParent: {fileID: 631569545751746994}
    m_Modifications:
    - target: {fileID: 278235501135002991, guid: 4630950f36a176848b2b367b8a4f7d16,
        type: 3}
      propertyPath: m_Name
      value: Camera
      objectReference: {fileID: 0}
    - target: {fileID: 6774787527711595880, guid: 4630950f36a176848b2b367b8a4f7d16,
        type: 3}
      propertyPath: m_LocalPosition.x
      value: 0
      objectReference: {fileID: 0}
    - target: {fileID: 6774787527711595880, guid: 4630950f36a176848b2b367b8a4f7d16,
        type: 3}
      propertyPath: m_LocalPosition.y
      value: 0
      objectReference: {fileID: 0}
    - target: {fileID: 6774787527711595880, guid: 4630950f36a176848b2b367b8a4f7d16,
        type: 3}
      propertyPath: m_LocalPosition.z
      value: 0
      objectReference: {fileID: 0}
    - target: {fileID: 6774787527711595880, guid: 4630950f36a176848b2b367b8a4f7d16,
        type: 3}
      propertyPath: m_LocalRotation.x
      value: 0
      objectReference: {fileID: 0}
    - target: {fileID: 6774787527711595880, guid: 4630950f36a176848b2b367b8a4f7d16,
        type: 3}
      propertyPath: m_LocalRotation.y
      value: 0
      objectReference: {fileID: 0}
    - target: {fileID: 6774787527711595880, guid: 4630950f36a176848b2b367b8a4f7d16,
        type: 3}
      propertyPath: m_LocalRotation.z
      value: 0
      objectReference: {fileID: 0}
    - target: {fileID: 6774787527711595880, guid: 4630950f36a176848b2b367b8a4f7d16,
        type: 3}
      propertyPath: m_LocalRotation.w
      value: 1
      objectReference: {fileID: 0}
    - target: {fileID: 6774787527711595880, guid: 4630950f36a176848b2b367b8a4f7d16,
        type: 3}
      propertyPath: m_RootOrder
      value: 0
      objectReference: {fileID: 0}
    - target: {fileID: 6774787527711595880, guid: 4630950f36a176848b2b367b8a4f7d16,
        type: 3}
      propertyPath: m_LocalEulerAnglesHint.x
      value: 0
      objectReference: {fileID: 0}
    - target: {fileID: 6774787527711595880, guid: 4630950f36a176848b2b367b8a4f7d16,
        type: 3}
      propertyPath: m_LocalEulerAnglesHint.y
      value: 0
      objectReference: {fileID: 0}
    - target: {fileID: 6774787527711595880, guid: 4630950f36a176848b2b367b8a4f7d16,
        type: 3}
      propertyPath: m_LocalEulerAnglesHint.z
      value: 0
      objectReference: {fileID: 0}
    m_RemovedComponents: []
  m_SourcePrefab: {fileID: 100100000, guid: 4630950f36a176848b2b367b8a4f7d16, type: 3}
--- !u!4 &2912844428445316602 stripped
Transform:
  m_CorrespondingSourceObject: {fileID: 6774787527711595880, guid: 4630950f36a176848b2b367b8a4f7d16,
    type: 3}
  m_PrefabInstance: {fileID: 8532177038198073490}
  m_PrefabAsset: {fileID: 0}
--- !u!114 &1427413136596569502 stripped
MonoBehaviour:
  m_CorrespondingSourceObject: {fileID: 7324912795057317132, guid: 4630950f36a176848b2b367b8a4f7d16,
    type: 3}
  m_PrefabInstance: {fileID: 8532177038198073490}
  m_PrefabAsset: {fileID: 0}
  m_GameObject: {fileID: 0}
  m_Enabled: 1
  m_EditorHideFlags: 0
  m_Script: {fileID: 11500000, guid: 6597483549f7a0f41a7c4161acb29a6f, type: 3}
  m_Name: 
  m_EditorClassIdentifier: 
