%YAML 1.1
%TAG !u! tag:unity3d.com,2011:
--- !u!1001 &1879822689800342247
PrefabInstance:
  m_ObjectHideFlags: 0
  serializedVersion: 2
  m_Modification:
    m_TransformParent: {fileID: 0}
    m_Modifications:
    - target: {fileID: 2105056734942340026, guid: 6679f396ce963e64ea6950a1f915e91a,
        type: 3}
      propertyPath: m_RootOrder
      value: 0
      objectReference: {fileID: 0}
    - target: {fileID: 2105056734942340026, guid: 6679f396ce963e64ea6950a1f915e91a,
        type: 3}
      propertyPath: m_LocalPosition.x
      value: 0
      objectReference: {fileID: 0}
    - target: {fileID: 2105056734942340026, guid: 6679f396ce963e64ea6950a1f915e91a,
        type: 3}
      propertyPath: m_LocalPosition.y
      value: 0
      objectReference: {fileID: 0}
    - target: {fileID: 2105056734942340026, guid: 6679f396ce963e64ea6950a1f915e91a,
        type: 3}
      propertyPath: m_LocalPosition.z
      value: 0
      objectReference: {fileID: 0}
    - target: {fileID: 2105056734942340026, guid: 6679f396ce963e64ea6950a1f915e91a,
        type: 3}
      propertyPath: m_LocalRotation.w
      value: 1
      objectReference: {fileID: 0}
    - target: {fileID: 2105056734942340026, guid: 6679f396ce963e64ea6950a1f915e91a,
        type: 3}
      propertyPath: m_LocalRotation.x
      value: -0
      objectReference: {fileID: 0}
    - target: {fileID: 2105056734942340026, guid: 6679f396ce963e64ea6950a1f915e91a,
        type: 3}
      propertyPath: m_LocalRotation.y
      value: -0
      objectReference: {fileID: 0}
    - target: {fileID: 2105056734942340026, guid: 6679f396ce963e64ea6950a1f915e91a,
        type: 3}
      propertyPath: m_LocalRotation.z
      value: -0
      objectReference: {fileID: 0}
    - target: {fileID: 2105056734942340026, guid: 6679f396ce963e64ea6950a1f915e91a,
        type: 3}
      propertyPath: m_LocalEulerAnglesHint.x
      value: 0
      objectReference: {fileID: 0}
    - target: {fileID: 2105056734942340026, guid: 6679f396ce963e64ea6950a1f915e91a,
        type: 3}
      propertyPath: m_LocalEulerAnglesHint.y
      value: 0
      objectReference: {fileID: 0}
    - target: {fileID: 2105056734942340026, guid: 6679f396ce963e64ea6950a1f915e91a,
        type: 3}
      propertyPath: m_LocalEulerAnglesHint.z
      value: 0
      objectReference: {fileID: 0}
    - target: {fileID: 3333576390150968917, guid: 6679f396ce963e64ea6950a1f915e91a,
        type: 3}
      propertyPath: m_Name
      value: TransparentBase
      objectReference: {fileID: 0}
    - target: {fileID: 3333576390150968917, guid: 6679f396ce963e64ea6950a1f915e91a,
        type: 3}
      propertyPath: m_Layer
      value: 15
      objectReference: {fileID: 0}
    - target: {fileID: 5459830142574957639, guid: 6679f396ce963e64ea6950a1f915e91a,
        type: 3}
      propertyPath: m_Materials.Array.data[0]
      value: 
      objectReference: {fileID: 2100000, guid: 1783cb2fa4d7acf40a8e372db2e6a08a, type: 2}
    m_RemovedComponents: []
  m_SourcePrefab: {fileID: 100100000, guid: 6679f396ce963e64ea6950a1f915e91a, type: 3}
