%YAML 1.1
%TAG !u! tag:unity3d.com,2011:
--- !u!64 &440486082008582513
MeshCollider:
  m_ObjectHideFlags: 0
  m_CorrespondingSourceObject: {fileID: 0}
  m_PrefabInstance: {fileID: 0}
  m_PrefabAsset: {fileID: 0}
  m_GameObject: {fileID: 8724675414881896430}
  m_Material: {fileID: 0}
  m_IsTrigger: 0
  m_Enabled: 1
  serializedVersion: 3
  m_Convex: 0
  m_CookingOptions: 30
  m_Mesh: {fileID: 10202, guid: 0000000000000000e000000000000000, type: 0}
--- !u!114 &6568371094659836739
MonoBehaviour:
  m_ObjectHideFlags: 0
  m_CorrespondingSourceObject: {fileID: 0}
  m_PrefabInstance: {fileID: 0}
  m_PrefabAsset: {fileID: 0}
  m_GameObject: {fileID: 8724675414881896430}
  m_Enabled: 1
  m_EditorHideFlags: 0
  m_Script: {fileID: 11500000, guid: 83664ab46eef46048922dd7d3a0eda69, type: 3}
  m_Name: 
  m_EditorClassIdentifier: 
  _meshFilter: {fileID: 5012729744372599713}
  _collider: {fileID: 440486082008582513}
  _shapeProvider:
    ObjectField: {fileID: 0}
    ResultType: 
--- !u!1001 &2616681769208064141
PrefabInstance:
  m_ObjectHideFlags: 0
  serializedVersion: 2
  m_Modification:
    m_TransformParent: {fileID: 0}
    m_Modifications:
    - target: {fileID: 1918916255359971470, guid: 9a024b0a9444a2d49b788d213b13b29e,
        type: 3}
      propertyPath: m_Name
      value: DynamicFocusArea Variant
      objectReference: {fileID: 0}
    - target: {fileID: 5129659026213161099, guid: 9a024b0a9444a2d49b788d213b13b29e,
        type: 3}
      propertyPath: m_LocalPosition.x
      value: 0
      objectReference: {fileID: 0}
    - target: {fileID: 5129659026213161099, guid: 9a024b0a9444a2d49b788d213b13b29e,
        type: 3}
      propertyPath: m_LocalPosition.y
      value: 0
      objectReference: {fileID: 0}
    - target: {fileID: 5129659026213161099, guid: 9a024b0a9444a2d49b788d213b13b29e,
        type: 3}
      propertyPath: m_LocalPosition.z
      value: 0
      objectReference: {fileID: 0}
    - target: {fileID: 5129659026213161099, guid: 9a024b0a9444a2d49b788d213b13b29e,
        type: 3}
      propertyPath: m_LocalRotation.x
      value: 0
      objectReference: {fileID: 0}
    - target: {fileID: 5129659026213161099, guid: 9a024b0a9444a2d49b788d213b13b29e,
        type: 3}
      propertyPath: m_LocalRotation.y
      value: 0
      objectReference: {fileID: 0}
    - target: {fileID: 5129659026213161099, guid: 9a024b0a9444a2d49b788d213b13b29e,
        type: 3}
      propertyPath: m_LocalRotation.z
      value: 0
      objectReference: {fileID: 0}
    - target: {fileID: 5129659026213161099, guid: 9a024b0a9444a2d49b788d213b13b29e,
        type: 3}
      propertyPath: m_LocalRotation.w
      value: 1
      objectReference: {fileID: 0}
    - target: {fileID: 5129659026213161099, guid: 9a024b0a9444a2d49b788d213b13b29e,
        type: 3}
      propertyPath: m_RootOrder
      value: 0
      objectReference: {fileID: 0}
    - target: {fileID: 5129659026213161099, guid: 9a024b0a9444a2d49b788d213b13b29e,
        type: 3}
      propertyPath: m_LocalEulerAnglesHint.x
      value: 0
      objectReference: {fileID: 0}
    - target: {fileID: 5129659026213161099, guid: 9a024b0a9444a2d49b788d213b13b29e,
        type: 3}
      propertyPath: m_LocalEulerAnglesHint.y
      value: 0
      objectReference: {fileID: 0}
    - target: {fileID: 5129659026213161099, guid: 9a024b0a9444a2d49b788d213b13b29e,
        type: 3}
      propertyPath: m_LocalEulerAnglesHint.z
      value: 0
      objectReference: {fileID: 0}
    - target: {fileID: 9221791478864830601, guid: 9a024b0a9444a2d49b788d213b13b29e,
        type: 3}
      propertyPath: _focusTarget.ObjectField
      value: 
      objectReference: {fileID: 0}
    m_RemovedComponents:
    - {fileID: 7172589221395679275, guid: 9a024b0a9444a2d49b788d213b13b29e, type: 3}
  m_SourcePrefab: {fileID: 100100000, guid: 9a024b0a9444a2d49b788d213b13b29e, type: 3}
--- !u!1 &8724675414881896430 stripped
GameObject:
  m_CorrespondingSourceObject: {fileID: 6720518688987787107, guid: 9a024b0a9444a2d49b788d213b13b29e,
    type: 3}
  m_PrefabInstance: {fileID: 2616681769208064141}
  m_PrefabAsset: {fileID: 0}
--- !u!33 &5012729744372599713 stripped
MeshFilter:
  m_CorrespondingSourceObject: {fileID: 7043798112678060844, guid: 9a024b0a9444a2d49b788d213b13b29e,
    type: 3}
  m_PrefabInstance: {fileID: 2616681769208064141}
  m_PrefabAsset: {fileID: 0}
